%YAML 1.1
%TAG !u! tag:unity3d.com,2011:
--- !u!114 &11400000
MonoBehaviour:
  m_ObjectHideFlags: 0
  m_CorrespondingSourceObject: {fileID: 0}
  m_PrefabInstance: {fileID: 0}
  m_PrefabAsset: {fileID: 0}
  m_GameObject: {fileID: 0}
  m_Enabled: 1
  m_EditorHideFlags: 0
  m_Script: {fileID: 11500000, guid: 54d21f6ece3b46479f0c328f8c6007e0, type: 3}
  m_Name: Gold
  m_EditorClassIdentifier: 
  colorMode: 3
  topLeft: {r: 0.9433962, g: 0.70815194, b: 0.013349922, a: 1}
  topRight: {r: 0.94509804, g: 0.70980394, b: 0.015686275, a: 1}
  bottomLeft: {r: 0.9811321, g: 0.5620568, b: 0.0509078, a: 1}
  bottomRight: {r: 0.9843137, g: 0.5647059, b: 0.050980393, a: 1}
